## Autogenerated by Scribe. DO NOT MODIFY.

name: Endpoints
description: ''
endpoints:
  -
    httpMethods:
      - GET
    uri: api/posts
    metadata:
      title: '포스팅 목록 가져오기'
      description: ''
      authenticated: false
    headers:
      Content-Type: application/json
      Accept: application/json
    urlParameters: []
    queryParameters: []
    bodyParameters: []
    responses:
      -
        status: 200
        content: '{"data":[{"id":1,"title":"\uc81c\ubaa9 : Ex omnis qui.","link":"\ub9c1\ud06c : www.naver.com","description":"\uc124\uba85 : Ipsam molestiae fugit possimus.","create_at":"1 week ago \uc804\uc5d0 \uc791\uc131\ub418\uc5c8\ub2e4."},{"id":2,"title":"\uc81c\ubaa9 : Optio.","link":"\ub9c1\ud06c : www.naver.com","description":"\uc124\uba85 : Modi repudiandae eaque sapiente.","create_at":"1 week ago \uc804\uc5d0 \uc791\uc131\ub418\uc5c8\ub2e4."},{"id":3,"title":"\uc81c\ubaa9 : Qui et et nam.","link":"\ub9c1\ud06c : www.naver.com","description":"\uc124\uba85 : Odit nisi consequuntur rem aperiam.","create_at":"1 week ago \uc804\uc5d0 \uc791\uc131\ub418\uc5c8\ub2e4."},{"id":4,"title":"\uc81c\ubaa9 : Ut quaerat.","link":"\ub9c1\ud06c : www.google.com","description":"\uc124\uba85 : Ullam cum accusamus cupiditate.","create_at":"1 week ago \uc804\uc5d0 \uc791\uc131\ub418\uc5c8\ub2e4."},{"id":5,"title":"\uc81c\ubaa9 : Explicabo ex.","link":"\ub9c1\ud06c : www.google.com","description":"\uc124\uba85 : Velit ut dolor voluptatem maiores.","create_at":"1 week ago \uc804\uc5d0 \uc791\uc131\ub418\uc5c8\ub2e4."},{"id":6,"title":"\uc81c\ubaa9 : Et ex dolor.","link":"\ub9c1\ud06c : www.daum.net","description":"\uc124\uba85 : Quis ipsam ab commodi voluptates assumenda.","create_at":"1 week ago \uc804\uc5d0 \uc791\uc131\ub418\uc5c8\ub2e4."},{"id":7,"title":"\uc81c\ubaa9 : Optio suscipit.","link":"\ub9c1\ud06c : www.google.com","description":"\uc124\uba85 : Veniam adipisci voluptas quo quidem.","create_at":"1 week ago \uc804\uc5d0 \uc791\uc131\ub418\uc5c8\ub2e4."},{"id":8,"title":"\uc81c\ubaa9 : Et eligendi.","link":"\ub9c1\ud06c : www.google.com","description":"\uc124\uba85 : Qui doloremque ex aut perspiciatis nesciunt eos.","create_at":"1 week ago \uc804\uc5d0 \uc791\uc131\ub418\uc5c8\ub2e4."},{"id":9,"title":"\uc81c\ubaa9 : Qui deleniti.","link":"\ub9c1\ud06c : www.naver.com","description":"\uc124\uba85 : Nihil dolorem dolor suscipit facere.","create_at":"1 week ago \uc804\uc5d0 \uc791\uc131\ub418\uc5c8\ub2e4."},{"id":12,"title":"\uc81c\ubaa9 : Ducimus quam.","link":"\ub9c1\ud06c : www.naver.com","description":"\uc124\uba85 : Aperiam assumenda natus ratione corrupti.","create_at":"1 week ago \uc804\uc5d0 \uc791\uc131\ub418\uc5c8\ub2e4."}],"meta":{"current_page":1,"from":1,"last_page":6,"path":"http:\/\/beginner-roadmap.test\/api\/posts","per_page":10,"to":10,"total":60}}'
        headers:
          cache-control: 'no-cache, private'
          content-type: application/json
          x-ratelimit-limit: '60'
          x-ratelimit-remaining: '59'
          access-control-allow-origin: '*'
        description: null
    responseFields: []
  -
    httpMethods:
      - POST
    uri: api/posts
    metadata:
      title: 'Store a newly created resource in storage.'
      description: ''
      authenticated: false
    headers:
      Content-Type: application/json
      Accept: application/json
    urlParameters: []
    queryParameters: []
    bodyParameters:
      title:
        name: title
        description: ''
        required: true
        example: qui
        type: string
      link:
        name: link
        description: ''
        required: true
        example: architecto
        type: string
    responses: []
    responseFields: []
  -
    httpMethods:
      - GET
    uri: 'api/posts/{id}'
    metadata:
      title: 'Display the specified resource.'
      description: ''
      authenticated: false
    headers:
      Content-Type: application/json
      Accept: application/json
    urlParameters:
      id:
        name: id
        description: 'The ID of the post.'
        required: true
        example: 18
        type: integer
    queryParameters: []
    bodyParameters: []
    responses:
      -
        status: 200
        content: '{"data":{"id":1,"title":"\uc81c\ubaa9 : Ex omnis qui.","link":"\ub9c1\ud06c : www.naver.com","description":"\uc124\uba85 : Ipsam molestiae fugit possimus.","create_at":"1 week ago \uc804\uc5d0 \uc791\uc131\ub418\uc5c8\ub2e4."}}'
        headers:
          cache-control: 'no-cache, private'
          content-type: application/json
          x-ratelimit-limit: '60'
          x-ratelimit-remaining: '58'
          access-control-allow-origin: '*'
        description: null
    responseFields: []
  -
    httpMethods:
      - PUT
      - PATCH
    uri: 'api/posts/{id}'
    metadata:
      title: 'Update the specified resource in storage.'
      description: ''
      authenticated: false
    headers:
      Content-Type: application/json
      Accept: application/json
    urlParameters:
      id:
        name: id
        description: 'The ID of the post.'
        required: true
        example: 5
        type: integer
    queryParameters: []
    bodyParameters:
      title:
        name: title
        description: ''
        required: true
        example: ipsam
        type: string
      link:
        name: link
        description: ''
        required: true
        example: voluptas
        type: string
    responses: []
    responseFields: []
  -
    httpMethods:
      - DELETE
    uri: 'api/posts/{id}'
    metadata:
      title: 'Remove the specified resource from storage.'
      description: ''
      authenticated: false
    headers:
      Content-Type: application/json
      Accept: application/json
    urlParameters:
      id:
        name: id
        description: 'The ID of the post.'
        required: true
        example: 18
        type: integer
    queryParameters: []
    bodyParameters: []
    responses: []
    responseFields: []
